<?xml version="1.0" encoding="UTF-8"?>
<svg width="500px" height="500px" viewBox="0 0 500 500" version="1.1" xmlns="http://www.w3.org/2000/svg" xmlns:xlink="http://www.w3.org/1999/xlink">
    <!-- Generator: Sketch 55.2 (78181) - https://sketchapp.com -->
    <title>cyberbiomes-logo-simple</title>
    <desc>Created with Sketch.</desc>
    <g id="cyberbiomes-logo-simple" stroke="none" stroke-width="1" fill="none" fill-rule="evenodd">
        <rect fill="#FFFFFF" x="0" y="0" width="500" height="500"></rect>
        <g id="logo" transform="translate(31.000000, 31.000000)" stroke="#000000">
            <g id="growth" fill="#000000" fill-rule="nonzero" stroke-width="0.24">
                <path d="M301.794776,197.862787 L301.750756,197.853501 L294.061552,196.247613 C290.329446,195.421616 286.023609,196.171041 282.790889,198.209315 L281.715001,198.869787 C278.967319,200.55355 276.455065,202.692345 274.354808,205.135797 L272.443838,207.355237 L269.715721,210.166722 L266.968365,212.680229 C264.968214,214.830754 260.523305,214.904394 258.452884,212.821154 L256.96027,211.543873 C253.94651,209.090156 252.165808,204.648671 252.65052,200.794507 C252.91774,196.987915 255.726071,193.046426 259.238239,191.54839 L261.449688,190.524773 C264.506164,189.112758 267.374819,187.202864 269.856097,184.927869 L273.017569,182.03411 C274.823542,180.379998 276.827933,178.920085 278.956559,177.708459 L280.288743,176.949422 C283.017512,175.341904 286.680164,174.924018 289.70126,175.875951 L292.901047,176.832935 L296.306424,178.058734 L301.341367,180.190198 C304.797613,181.6607 308.629171,182.434075 312.385733,182.419412 L312.770503,182.418598 C316.257725,182.420227 319.827934,181.594393 322.959897,180.061655 L325.324113,178.912102 C326.95857,178.117548 328.532377,177.184187 330.013252,176.130756 L334.059206,173.253452 C336.71363,171.362782 339.685,169.855948 342.779463,168.831516 L349.792385,166.503736 L354.660052,165.290319 L362.911411,163.889545 C364.789936,163.570225 366.703189,163.414149 368.608615,163.424738 L375.672731,163.462861 C377.367676,163.471822 379.066696,163.61242 380.739956,163.882051 L383.899472,164.391008 C387.463812,164.930106 390.996685,166.912336 393.312804,169.672828 L393.332532,169.695799 C395.478114,172.345181 399.451027,173.865699 402.818905,173.326439 L404.678192,173.079943 C407.857762,172.656192 411.134013,172.70409 414.299724,173.220705 L417.266529,173.702618 C419.420588,174.053056 421.620462,174.188767 423.80126,174.105841 L428.384751,173.932496 C429.748565,173.906755 431.195039,173.153908 431.997676,172.051927 C432.841561,170.981227 433.174811,169.385928 432.829985,168.067265 L431.680403,163.302549 L431.207267,161.553945 L429.476291,155.791515 C429.109455,154.489145 428.053131,153.285339 426.808824,152.751944 C425.583919,152.175864 423.98158,152.184988 422.763359,152.774916 C419.437707,154.322805 415.716688,155.193279 412.048983,155.281255 L411.892466,155.285328 C408.236336,155.406539 404.37543,154.234177 401.404876,152.100922 L400.858535,151.714479 C399.553252,150.822663 398.603065,149.227201 398.441006,147.655526 C398.228404,146.089716 398.776212,144.315696 399.834818,143.141868 L400.707072,142.142851 C403.572467,138.643849 409.030658,136.783319 413.43872,137.803027 L420.155401,139.135049 C420.878149,139.304321 421.779424,138.982557 422.231203,138.394258 C422.722274,137.838054 422.865095,136.892312 422.560214,136.2162 L421.344601,133.254504 L420.706144,131.799804 L415.806359,121.330658 L415.058829,119.833925 L411.521065,113.178214 L410.795056,111.883826 L406.2789,104.240013 L405.152959,102.466156 L399.228806,93.7597887 C397.30251,90.8233447 393.764257,88.660438 390.271002,88.2839333 L390.16894,88.2710627 C386.585851,87.8029977 382.715,88.4681941 379.494508,90.1056885 L378.906919,90.4002452 C376.547431,91.3305102 375.183943,95.0110031 376.368415,97.2522736 L376.763456,98.1945945 C377.780325,100.622896 379.100771,102.944322 380.668546,105.059819 L381.808834,106.5994 C383.636492,109.070711 385.836202,111.303836 388.280143,113.16909 L391.705737,115.786865 C392.976131,116.728698 393.881318,118.329372 394.03327,119.902677 C394.230872,121.470931 393.699857,123.231103 392.667662,124.42888 L389.2062,128.565708 L388.021239,129.905876 L385.185843,132.943003 C382.96184,135.303367 381.361621,138.400612 380.723652,141.579153 L380.6017,142.172502 C380.255896,145.056161 376.69172,147.68257 373.832683,147.160742 L371.541182,146.936892 C367.7481,146.561691 363.831924,146.863253 360.14123,147.814534 L351.271304,150.089855 L349.310282,150.529572 L338.044836,152.697692 L335.227211,153.114764 L330.24281,153.633659 C326.63608,153.962592 322.962831,155.92462 320.685352,158.738549 C318.323745,161.617809 314.904835,163.825681 311.307725,164.794883 L311.255553,164.80922 C307.787895,165.826158 303.593576,165.208696 300.56661,163.235753 L299.23573,162.398026 C297.86784,161.572029 296.839069,159.969236 296.65826,158.382409 C296.418757,156.80324 296.993793,154.987838 298.098865,153.834049 L301.064366,150.620644 L304.53186,147.368952 L310.069776,142.880709 L312.210304,141.285248 L315.729319,138.877474 C318.664494,136.843762 322.380296,135.688996 325.952135,135.700889 L332.54931,135.683619 L335.031729,135.583424 L345.39916,134.773393 L348.97263,134.296694 L354.104418,133.323744 C358.376017,132.573993 362.563651,129.816759 364.938138,126.190355 L365.298941,125.655494 C366.233313,124.346117 366.430915,122.355253 365.771752,120.888171 C365.191336,119.38818 363.635953,118.128494 362.047309,117.871571 L360.123133,117.507937 C355.502307,116.624267 350.580512,116.766332 346.018542,117.915233 L343.168961,118.626047 C340.341717,119.332951 337.393988,119.663024 334.480171,119.598997 L332.620721,119.559082 C331.11164,119.553054 329.50278,118.775606 328.560908,117.597379 C327.578604,116.452551 327.114923,114.728058 327.390784,113.245499 L327.689796,111.467895 C328.136031,108.396228 330.373566,105.349488 333.171953,104.002641 C336.19419,102.45801 339.580329,101.492229 342.963207,101.209728 L346.470157,100.911261 C348.337433,100.75209 350.225088,100.752905 352.092038,100.913705 L356.473525,101.290373 C357.997279,101.449218 359.709505,100.825729 360.773818,99.7245626 C361.87726,98.6626595 362.503653,96.9525035 362.34681,95.4297038 C362.163392,91.7237955 359.339735,87.8373735 355.870284,86.5154524 L354.554566,85.9607147 C350.274489,84.1249485 345.212807,83.6355412 340.659968,84.6171254 L335.590134,85.6775623 L331.48891,86.8160371 L325.910398,88.76047 L322.880008,89.6563591 L320.298625,90.286691 C317.934899,90.764694 315.733232,93.0673848 315.363135,95.4487653 L314.44735,100.104652 L314.157305,101.816437 L312.953921,110.268488 L312.578281,112.400766 L311.723146,116.467539 C311.081591,119.681108 309.09921,122.803767 306.463373,124.753414 L305.48922,125.489154 C302.994248,127.376565 300.198796,128.918589 297.27112,130.022525 L296.955316,130.141782 C293.869819,131.297526 290.992522,133.246195 288.775041,135.681664 L288.221037,136.286744 C286.148823,138.546913 284.380185,141.124773 283.017675,143.871091 L280.702045,148.531213 L280.106467,149.796439 L277.990232,154.552031 C276.496313,157.977719 273.706405,161.021527 270.422165,162.808743 L264.736047,165.958122 C262.563564,167.160461 260.515479,168.619722 258.669888,170.280351 L251.482678,176.742678 C250.210002,177.887181 248.84358,178.935399 247.408192,179.867945 L242.341946,183.160854 C238.225722,185.871005 233.061326,187.342974 228.133499,187.210847 L222.656233,187.096315 L218.181326,186.696676 L212.387766,185.777978 C209.810459,185.586712 207.332443,182.528079 207.681997,179.969117 C207.749331,177.025179 209.74182,173.885576 212.377984,172.569357 L213.349854,172.047691 C216.746427,170.192864 220.94955,169.458101 224.774588,170.050799 C228.473923,170.65376 232.700523,169.51724 235.597547,167.140748 L239.032598,164.408603 C240.604937,163.158529 242.068042,161.758082 243.385553,160.242287 L246.117419,157.100403 C248.541959,154.289732 251.830928,152.07127 255.346356,150.875774 C258.783525,149.725895 261.946791,147.197236 263.824338,144.099014 L265.54814,141.3105 C266.536477,139.712432 267.390308,138.02313 268.091046,136.279901 L270.2019,131.029525 C272.137652,126.075986 276.153933,121.639389 280.892799,119.219885 L282.763988,118.241233 C286.803747,116.139584 290.461833,113.097569 293.263969,109.509777 L294.021608,108.543995 C296.297783,105.681517 297.688661,101.920216 297.822026,98.2667674 L297.877785,96.9730312 C298.003162,94.0297447 298.533688,91.0776606 299.440995,88.2746469 L300.052551,86.382185 C301.205557,82.6091543 304.290564,79.1551181 307.911641,77.58328 L311.804502,75.8193608 C313.715472,74.95296 315.718721,74.2670729 317.759796,73.7804352 L323.775087,72.3451227 L327.698437,71.1466939 L333.167877,69.0957122 L337.282959,67.2214972 L340.50019,65.4805496 C343.252926,63.9233741 347.023835,63.7123946 349.933576,64.9525306 C353.1107,66.23193 356.098048,68.124066 358.611933,70.4492396 L359.350985,71.1310537 C361.796719,73.3939924 364.729449,75.2150959 367.842988,76.4042384 C370.90354,77.5915888 374.384078,77.9718407 377.629026,77.4733099 L380.362686,77.0638956 C381.375316,76.9475718 382.39088,76.1127771 382.700653,75.1424342 C383.07613,74.1955516 382.819507,72.9068659 382.10964,72.1756874 L379.035719,68.7843749 L377.761739,67.4556112 L369.459185,59.2661844 L368.046297,57.9519205 L360.382527,51.2308786 L358.808231,49.9340469 L348.722203,42.1379055 L346.692704,40.6882563 L337.171278,34.4183359 C336.305872,33.8067396 334.948579,33.7376622 334.025457,34.2585128 C333.070217,34.7176172 332.350893,35.8697772 332.358229,36.9289107 L332.323665,38.2617474 C332.249646,41.0732328 332.542462,43.9169761 333.188257,46.6543336 L333.440313,47.7248714 C334.298057,50.2795972 332.166823,53.9108887 329.516964,54.4099083 L326.442228,55.2899943 C323.172824,56.4832097 318.482381,54.4187059 317.156392,51.2028566 L316.905802,50.70009 C315.1745,47.2859688 314.559357,43.1220965 315.229607,39.3537904 L315.962789,35.0582799 L316.357342,31.7362078 L316.601084,28.1244664 C316.939877,25.1901404 314.884944,21.7336605 312.14411,20.6274435 L306.191425,17.8892714 L304.509524,17.1716152 L295.422105,13.5877329 L293.668956,12.9530023 L282.864909,9.38361975 L281.078663,8.84908398 L271.652777,6.31602636 L269.859031,5.88738765 L263.544402,4.56400027 C260.548087,3.77514865 256.634194,5.47813626 255.17109,8.20751073 C253.43506,10.7886293 253.721355,15.0359159 255.788026,17.3610895 L256.946738,18.8012895 C259.218674,21.6927679 262.85687,23.774867 266.502239,24.2699764 L266.885216,24.3265092 C270.480696,24.8532249 274.033786,26.0013119 277.257049,27.6779067 L277.293733,27.6968052 C280.501997,29.3717709 284.181931,30.3279398 287.800399,30.4271572 L290.92209,30.5203466 C292.390085,30.5426665 293.940415,31.2634181 294.903155,32.3709384 C295.898176,33.4497851 296.44305,35.0691955 296.302837,36.5295974 L296.092029,39.1219573 C295.916763,41.2726451 295.954751,43.4508661 296.204688,45.5942226 L296.423811,47.475606 C296.798962,50.7870885 298.034628,54.0914025 299.924566,56.8372318 L300.689541,57.9561564 C301.456635,59.0104023 301.600435,60.6483854 301.028497,61.8200956 C300.52634,63.0230862 299.201003,63.9978279 297.902241,64.1190393 L294.607404,64.5245435 C290.83193,64.9220648 287.00249,67.2816142 284.951634,70.4741661 L284.648383,70.9285459 C282.609265,73.9505221 281.425445,77.7056318 281.362675,81.3497939 L281.288819,84.6824558 L280.849105,89.3619653 L279.901691,95.0460306 C279.640993,96.7657988 278.546355,98.4704156 277.090587,99.4236521 C275.663515,100.41941 273.672819,100.80064 271.978527,100.402955 C268.019635,99.6704737 264.235846,96.1568093 263.215065,92.265011 L262.296508,89.1819403 C261.11334,85.2678221 260.997094,80.8981837 261.970269,76.9268811 L262.210587,75.9288421 C263.027408,72.5230298 264.415188,69.2094294 266.269258,66.2374692 L270.227987,59.879084 L270.265648,59.8186412 L273.997265,53.7961941 C274.951038,52.308259 275.245811,50.2631424 274.750827,48.5668345 C274.308179,46.8561897 273.008602,45.2489982 271.427458,44.4577028 L266.90478,42.1064623 C265.275704,41.2591229 263.56951,40.5463542 261.821904,39.982656 L257.872142,38.7081442 C256.708702,38.3081792 255.25,38.4987939 254.228729,39.1841922 C253.182024,39.8303272 252.405474,41.0790979 252.289391,42.302942 L251.844949,46.195392 L251.650933,48.8275041 L251.548056,51.9014513 C251.45969,54.7575765 250.690965,57.6604592 249.354215,60.1865113 L247.841874,63.0618608 C246.717563,65.2013072 245.347227,67.2278511 243.780594,69.0686678 L241.917231,71.2591077 C239.519593,73.8902423 238.762607,78.4159567 240.173865,81.6832882 L240.991338,83.7691344 C241.936796,86.1839131 243.178983,88.5017554 244.666543,90.6265391 L245.448148,91.7439974 C247.019183,93.9877117 248.316804,96.4482706 249.281011,99.011631 L251.566806,105.080673 L251.764571,105.620422 L254.421766,113.067592 C255.805145,116.891453 256.118993,121.244311 255.298585,125.226855 L255.219675,125.618837 C254.502144,129.311386 252.474276,132.913352 249.688444,135.443151 C248.655271,136.428157 247.048367,136.952918 245.632544,136.767516 C244.211015,136.631479 242.762421,135.760843 241.976088,134.569908 L241.440508,133.788876 C239.078411,130.35993 237.444606,126.319061 236.759846,122.212862 L235.773466,116.377934 L235.628851,115.440501 L234.791976,109.443469 C234.230636,105.311203 232.527866,101.209076 229.997188,97.8931952 C229.089555,96.6488233 227.472053,95.789428 225.931995,95.7332211 C224.395035,95.6216219 222.693732,96.3001776 221.655994,97.4384895 L220.476087,98.6867715 C217.025059,102.185773 215.278269,107.872119 216.170577,112.703469 L216.87751,117.047203 C217.294561,119.616429 218.024809,122.153234 219.037439,124.551395 L221.198183,129.674043 C222.762697,133.410743 225.267778,136.861032 228.337134,139.506666 L228.623918,139.75528 C231.090685,141.595608 231.7999,146.095418 230.018546,148.604364 C228.590984,151.371209 224.317266,152.903947 221.454805,151.676193 L219.543998,151.005783 C215.120937,149.496343 211.056071,146.244163 208.614575,142.261456 L206.457743,138.809537 C205.281749,136.928317 204.292434,134.917413 203.519959,132.837921 L200.413268,124.481666 L199.074562,119.879379 L197.15919,110.900449 C196.779311,109.121379 196.546982,107.304348 196.467093,105.486992 L196.341717,102.648788 C196.126669,99.2868005 197.715313,95.5675329 200.293435,93.3968061 L203.002476,91.0232458 C204.436397,89.7664921 205.985748,88.6306239 207.615966,87.6410567 L209.554,86.464296 C212.420211,84.7324718 214.960018,82.3230693 216.839848,79.5528023 L218.64468,76.90505 L221.068731,72.7180433 L225.642113,63.2808233 L226.29932,61.9971881 L232.067446,51.3138041 L233.66522,47.9000088 L237.403684,38.5541862 L238.335936,36.4412955 L240.391031,32.1943347 C241.977229,29.1632351 241.657185,24.8180345 239.644154,22.0515145 L239.03113,21.1509008 C236.673599,17.9699161 236.528169,12.7363206 238.705217,9.42939986 L240.541842,6.37972751 C241.189429,5.37061001 241.241438,3.86475385 240.664935,2.81344045 C240.149572,1.7310096 238.897439,0.891490308 237.699435,0.825508295 L232.675415,0.404200923 L230.941505,0.304657689 L221.353722,0.00765717187 L219.601225,0 L214.464546,0.113880067 C213.408548,0.0977511302 212.251629,0.852552774 211.842077,1.82533944 C211.360463,2.76456488 211.526599,4.13519865 212.218369,4.93252203 L215.287725,8.74986658 C217.559335,11.569335 219.380145,14.8128804 220.603583,18.2198332 L221.591594,20.9620782 C222.673678,23.9096006 222.828238,27.3294239 222.016635,30.3624786 L221.805989,31.1692512 C221.127425,33.7765997 220.017787,36.3055844 218.55827,38.5708039 L218.548651,38.5859553 C217.089459,40.8529669 215.903194,43.319228 215.043168,45.8739537 L214.115807,48.6245076 L213.275672,50.84802 L211.861479,54.2173385 C210.64228,57.1370019 208.785113,59.8567642 206.508774,62.0556758 L206.267478,62.2896269 C205.437777,63.1286574 204.079669,63.5677229 202.915251,63.3733611 C201.743822,63.2280377 200.567339,62.4202876 200.011216,61.3797268 L197.807429,57.4561593 C195.997869,54.2885339 195.233547,50.3392254 195.731139,46.7256919 L195.734889,46.6966924 C196.205417,43.0065873 197.582111,39.3401053 199.656608,36.2511696 L200.027194,35.6959431 C201.881752,32.9233953 203.323824,29.8298978 204.254446,26.627245 L204.267489,26.5824424 C205.20561,23.3895646 205.44495,19.9166299 204.953717,16.6255122 L204.948173,16.588041 C204.467374,13.2685755 203.236925,9.98592963 201.41742,7.16760162 L200.847927,6.28116179 C200.272403,5.3116335 198.958153,4.67006025 197.839059,4.81228814 C196.712628,4.87501178 195.536634,5.74401933 195.146484,6.80184948 L191.628121,15.3910784 L190.998305,16.8296492 L188.537571,22.104626 C187.335328,24.6850929 185.781248,27.1280566 183.953265,29.3111652 L182.988568,30.4643027 C181.607309,32.1148305 180.383382,33.9098671 179.351677,35.798256 L178.550018,37.2646859 C177.043709,39.9626171 176.504705,43.3746203 177.106153,46.4050682 L177.502824,48.5019929 C178.313124,52.8291096 180.050784,57.0690648 182.51054,60.72121 L184.067228,63.0416589 C185.630927,65.3751413 187.512061,67.5235482 189.619003,69.382123 L191.768334,71.2799612 C194.232003,73.1536875 194.902742,77.6859186 193.087313,80.1919318 C191.475681,83.0811294 187.411466,84.9211315 184.17516,84.2266097 L183.927179,84.1849025 C180.134749,83.5886206 176.384383,81.3981807 174.003374,78.3887493 L171.051732,74.7379075 C169.765361,73.1473337 168.623442,71.4288688 167.655322,69.6271525 L164.72732,64.1801337 C163.408994,61.7303275 162.397016,59.0908841 161.739809,56.3879024 L160.847012,52.7237013 C160.174317,49.9571814 159.129569,47.2566435 157.765103,44.75731 L155.777505,41.1124962 L153.544698,37.5735794 L151.008477,34.0687127 C150.23372,33.0636681 150.059106,31.4656001 150.598599,30.3170243 C151.067497,29.1381457 152.353215,28.1717128 153.616761,28.0485464 L157.368268,27.5677737 C160.321051,27.1919207 163.248727,26.3304074 165.933965,25.0467721 L166.05657,24.9884473 C168.627518,23.7712828 170.961898,21.8859893 172.692058,19.6294045 L173.976799,17.9635623 L176.997569,14.5613342 L179.489118,12.1182076 C180.975862,10.6609012 182.329568,9.05468719 183.513714,7.34257615 L184.339665,6.14903485 C184.772368,5.57930868 184.788183,4.61792631 184.374229,4.03418914 C184.013589,3.416402 183.131063,3.03305465 182.432934,3.19124856 L174.67183,4.59153351 L172.714884,5.00632413 L161.885891,7.64707092 L159.868458,8.20751073 L147.901296,11.9448623 L145.754899,12.6973831 L133.31509,17.5466537 L131.267657,18.4255993 L120.407199,23.5293487 L118.641822,24.4245862 L109.501416,29.4103826 L107.971629,30.2989403 L103.916218,32.8025097 C103.121082,33.2477661 102.606044,34.3489326 102.77381,35.24417 C102.865112,36.1504859 103.669705,37.0620152 104.5581,37.2655005 L111.580152,39.1915236 L114.841566,39.910646 L117.715765,40.3933737 C120.68632,40.8956516 123.78861,40.8774047 126.753132,40.3405881 L127.790543,40.1540464 C130.874246,39.4528449 134.781618,41.1797815 136.337165,43.9313129 L139.758194,49.3863148 C141.099998,51.5242949 142.200505,53.8326878 143.016674,56.2209109 L146.414715,66.1540549 L146.709161,67.0571124 L148.988923,74.4075087 C149.937968,77.4749391 151.357704,80.4320737 153.157971,83.0912303 L153.735289,83.9454123 C155.186166,86.1128807 157.328487,87.924372 159.707865,88.9953986 L159.863403,89.0662681 C162.209033,90.1340363 164.442981,91.4885411 166.473947,93.0745532 L169.74759,95.6291161 L170.851847,96.4542986 L174.353743,98.9586825 C176.93268,100.771477 178.960222,103.623855 179.824161,106.653977 L180.898908,110.311499 C181.569484,112.590729 181.993383,114.956632 182.156095,117.326772 L182.644395,124.409493 L182.868898,126.597326 L183.547137,131.565853 C184.049457,135.283654 185.261646,138.965776 187.066152,142.255754 L187.185333,142.473901 C188.908319,145.632892 191.200635,148.537404 193.873319,150.947947 L195.137354,152.090495 C196.991098,153.764809 198.663054,155.663787 200.088822,157.714443 L201.143516,159.2304 C201.936533,160.329123 202.22348,161.906012 201.86822,163.213433 C201.558285,164.532422 200.555437,165.783147 199.334771,166.372912 L195.783963,168.164528 C192.696836,169.902706 187.948677,169.297463 185.39713,166.840652 L182.841508,164.594819 C181.386882,163.317212 180.040676,161.905197 178.833705,160.391684 L177.548149,158.77993 C176.165912,157.046314 174.599278,155.444988 172.895856,154.024827 L171.981212,153.262042 C169.75672,151.431652 168.067156,148.76158 167.366092,145.968504 L166.752742,143.592663 C166.071569,140.958433 165.718103,138.218306 165.708483,135.497729 L165.675713,127.189861 L165.672615,126.851968 L165.59615,121.463762 C165.58865,118.146415 164.135654,114.641711 161.79296,112.291285 L160.643052,111.109637 C158.936043,109.354189 157.019692,107.781211 154.965086,106.4487 L149.819766,103.109684 L147.764833,101.661827 L140.86506,96.3956479 L139.490974,95.287313 L136.651013,92.8684613 C134.444944,91.032695 132.901136,88.1500142 132.596581,85.2974733 L132.058066,80.7520458 L131.492976,77.4402375 L130.199432,71.6566289 C129.404947,67.9885178 127.310396,64.4386855 124.482826,61.9685144 L124.114034,61.6420256 C121.456512,59.2821504 118.31167,57.3854527 114.983736,56.1355416 L114.467394,55.9408539 C111.46146,54.8097104 108.594108,53.2158782 106.046964,51.2606927 L104.702714,50.2305587 C102.52159,48.5570593 100.10993,47.1489543 97.5802309,46.0715739 L95.3629124,45.1261576 C94.2465903,44.605307 92.6763701,44.8140057 91.734988,45.6082336 C90.7425749,46.3376199 90.1734088,47.8149653 90.4200855,49.0212143 L90.4331285,49.0984377 C91.1516376,53.3786338 92.7776168,57.5904042 95.122105,61.2438527 L95.9679468,62.5670772 C98.4609628,66.4955322 102.046334,69.8837493 106.110712,72.1519013 L106.239023,72.2239113 C110.164492,74.3996886 113.524707,77.9648352 115.463068,82.0107545 L115.598552,82.2890194 C116.324724,83.7145567 116.356517,85.6179341 115.678278,87.0667688 C115.053516,88.5395525 113.615683,89.7884861 112.069266,90.2018104 L111.657921,90.3197635 C107.917337,91.4447161 103.452375,90.9658984 100.035911,89.0734366 C97.0559002,87.268299 92.2811657,87.8774515 89.8505933,90.3730378 L88.0195121,92.068857 C86.9219395,93.0517446 86.2446791,94.651116 86.3028837,96.1229222 C86.3120138,97.5957059 87.0615001,99.1624936 88.20293,100.094388 L92.4909958,103.71623 L93.1790167,104.28172 L96.7472691,107.133935 C99.0871923,109.076087 102.608816,109.928151 105.578718,109.271101 L111.344725,108.105907 L112.632237,107.872282 L118.762144,106.884996 C122.450882,106.246518 126.624658,107.161306 129.707383,109.283809 L133.462966,111.805625 L135.869082,113.584695 L139.471736,116.510875 C142.151105,118.683231 144.510918,121.315181 146.378683,124.214153 L148.576437,127.618662 C150.41779,130.071401 149.880579,134.547914 147.511146,136.496094 C145.29611,138.822571 140.909243,139.444268 138.134171,137.825021 L136.768075,137.118769 C133.424489,135.395579 130.348449,133.02821 127.82739,130.237741 L127.537019,129.917443 C125.414752,127.490445 121.901932,125.985241 118.679484,126.122255 L116.273856,126.182372 C114.3518,126.230107 112.426646,126.447767 110.542414,126.830136 L108.129124,127.319707 C104.73255,128.019931 101.062562,127.862063 97.738867,126.872984 L97.6338704,126.842192 C94.2205042,125.847249 90.9613721,124.029404 88.3222739,121.648512 L82.1180211,116.078653 L81.4511952,115.463309 L73.6940042,108.103464 L70.3667221,104.432909 L67.2722585,100.455252 C64.8901085,97.4876909 63.789112,93.178984 64.4559379,89.4334866 L64.5726732,88.7146899 C64.8734786,85.7616283 67.9306065,82.8641218 70.8975743,82.719776 L71.2676708,82.6795351 C74.5709863,82.3300748 77.8687584,81.1992572 80.6907854,79.4482086 C83.1461395,78.1150461 84.6030482,74.4870129 83.751174,71.8275305 L82.3366552,66.391916 L82.1312272,65.5582618 L79.9955908,56.3740543 C79.7736959,55.2702811 78.8080211,54.2220632 77.7254479,53.9099112 C76.6637437,53.5334065 75.2678112,53.8230756 74.4438165,54.5909108 L70.7648612,57.8186531 L69.6144642,58.8771349 L63.9565521,64.3371872 L62.7675151,65.5452283 L55.1180923,73.7278125 L53.7242794,75.3180604 L45.6137848,85.1948346 L44.1020953,87.1852106 L37.3378065,96.8303146 C35.411348,99.5469814 34.2602988,102.961428 34.1489438,106.289203 C34.0780222,107.445273 34.6665898,108.728908 35.5890596,109.430272 C36.4789217,110.172366 37.8624632,110.459429 38.9743832,110.132614 L44.5918618,108.618286 C47.9902285,107.541069 52.525297,109.054908 54.5935987,111.956976 L58.0270186,116.354799 L58.9710093,117.509077 L62.1662305,121.240564 C64.5341962,124.011483 67.4095366,126.413391 70.558455,128.250786 L73.5544436,130.002975 L77.1192722,132.413355 L81.2381043,135.609328 C82.4690422,136.526071 83.2918956,138.173829 83.284885,139.708033 C83.3385245,141.241097 82.5662129,142.91313 81.3636437,143.866855 C78.3484166,146.462962 73.6834067,147.589055 69.814512,146.65488 L69.2032821,146.520472 C65.1583062,145.63778 61.2186529,143.93186 57.8080584,141.586321 L56.0284972,140.36655 C53.7542784,138.809375 51.6618471,136.949333 49.8491892,134.873588 L48.9197089,133.810382 C46.5925027,131.116686 43.3009259,129.07271 39.8534848,128.180731 L37.1653122,127.468614 C35.2598856,126.964218 33.3924469,126.285174 31.6081577,125.447935 L28.5676596,124.021909 C27.1250983,123.320708 25.2676049,123.245602 23.7731975,123.828362 C22.2631384,124.369089 20.9110632,125.644252 20.2836925,127.11948 L15.8710656,137.106061 C14.8874566,139.307254 14.5005671,141.858721 14.7875142,144.252157 C14.8771852,145.159614 15.427928,146.08271 16.1839358,146.593134 C16.9228246,147.128322 17.9793116,147.329526 18.8631413,147.103232 L23.1614784,146.078311 C26.2492575,145.334262 29.5801264,145.289297 32.6869809,145.949443 C35.7229139,146.565438 38.6748822,148.262072 40.7342167,150.574863 L42.3928036,152.411933 C44.7700625,155.050236 47.6185016,157.325394 50.7175303,159.061617 L50.9889888,159.214108 C54.2171436,161.038144 57.9673466,162.124485 61.6714098,162.308583 L68.7003094,162.676779 L70.3809064,162.722071 L78.3562424,162.732823 C81.6975458,162.741132 85.0871084,162.162771 88.2363528,161.046942 C91.1870168,160.057538 93.8448644,157.557064 95.0112391,154.673731 L95.5440477,153.414045 C96.8475375,150.207319 99.7293994,147.409356 102.974673,146.199523 C106.314183,144.879231 110.204762,144.57832 113.707799,145.369779 L115.649094,145.796951 C118.109503,146.337352 120.522793,147.167748 122.794403,148.255718 L129.315113,151.375608 L130.621374,151.966025 L135.246603,153.936688 C138.434161,155.302434 141.984317,156.002821 145.4523,155.950198 L145.596263,155.948243 C148.825233,155.871671 152.259957,157.1237 154.681237,159.259888 L155.084919,159.608534 C157.402995,161.608196 159.457602,163.957482 161.130047,166.521005 L161.226402,166.668447 C162.95803,169.323693 165.132307,171.734725 167.59565,173.731129 L170.938909,176.445026 L174.087339,178.707313 L183.792835,184.848528 L185.758423,186.194235 L193.894188,192.20707 L194.389498,192.580479 L199.269066,196.330864 C202.487928,198.813906 206.284271,200.675087 210.219522,201.699356 L211.084928,201.926139 C214.372103,202.807528 218.06508,202.674098 221.280028,201.557943 C224.450142,200.447653 228.186486,200.470299 231.342741,201.6192 L232.29733,201.957745 C233.599189,202.383777 234.747141,203.619677 235.075499,204.948604 C235.468584,206.260098 235.10827,207.907368 234.203571,208.935384 L232.573027,210.882586 C230.664014,213.164749 228.421424,215.203186 225.967374,216.886624 L223.532074,218.559308 C220.833956,220.463174 217.128752,221.279071 213.879565,220.684581 L213.318388,220.589273 C210.219196,220.064676 207.165981,219.080648 204.344117,217.696817 L199.953989,215.547433 L196.126669,213.963376 L191.28998,212.309101 C188.917613,211.498418 186.623992,210.407842 184.498301,209.079404 L183.198072,208.267581 C180.498813,206.584632 178.025035,204.477932 175.934398,202.081726 L175.107794,201.135658 C173.553226,199.355447 171.795349,197.73457 169.89465,196.329072 L165.314909,192.940203 L164.991768,192.704134 L158.970444,188.360889 L155.80783,185.766411 L150.981739,181.278331 L148.181885,178.94941 L145.168451,176.712701 C142.771139,174.918968 139.804171,173.733573 136.830029,173.381506 L136.179996,173.302001 C133.63383,173.002068 131.091087,171.947171 129.08099,170.357086 L128.941593,170.247604 C126.955625,168.689777 124.774827,167.353519 122.484794,166.29129 L122.05209,166.090575 C119.504457,164.90355 116.687484,164.184753 113.882087,164.005869 L112.206381,163.896713 C110.890663,163.780715 109.407832,164.417238 108.586446,165.450956 C107.718431,166.4459 107.361377,168.018553 107.714681,169.290458 L108.160916,171.052259 C109.171589,175.153408 111.605096,179.082351 114.827219,181.815636 L115.271661,182.19768 C118.279551,184.789388 121.823022,186.856825 125.560182,188.200414 L129.33321,189.562576 C131.111304,190.204149 132.839997,191.00245 134.481465,191.939721 L140.196603,195.202164 C141.960839,196.208838 143.638501,197.384621 145.186548,198.699211 L150.055682,202.832781 L151.29738,203.836196 L158.888435,209.672101 L159.742755,210.351635 L166.816653,216.172714 C169.609823,218.389873 171.452969,222.195324 171.459653,225.759982 L171.463403,225.952878 C171.546552,229.624736 170.698428,233.415036 169.058265,236.701755 C168.559205,237.780439 167.352234,238.635761 166.168577,238.749478 C164.99242,238.925919 163.614096,238.388451 162.868196,237.462911 L158.588119,232.430031 C157.20523,230.803289 155.655715,229.304764 153.98327,227.976815 L147.820755,223.081601 L145.081063,220.644829 L139.668034,215.261674 C138.18455,213.785795 136.552049,212.446116 134.814878,211.278967 L132.921679,210.00641 C129.966287,208.014242 126.590746,206.544065 123.11836,205.736967 L119.69945,204.937525 L115.880771,203.797096 L111.588956,202.227375 C107.753647,200.87955 104.293978,197.740435 102.582404,194.055381 L101.213209,191.203003 C99.3695743,187.328637 96.4469528,183.832242 92.9597304,181.32965 L92.8263652,181.233202 C89.6029384,178.841721 85.1334112,177.734038 81.1652263,178.34319 L78.452761,178.725071 C76.0011567,179.07111 73.4946086,179.138884 71.0280048,178.92595 L63.2093484,178.253259 L61.1480574,178.140845 L52.2078618,177.933287 L48.9731854,177.698684 L44.5323529,177.156002 C40.7746502,176.743981 36.9797748,174.650804 34.6282759,171.693018 L33.5038019,170.314238 C30.7137305,166.874702 27.0359165,164.018088 23.0118094,162.165052 L21.4818597,161.455705 C18.6156494,160.08279 14.9696278,159.903091 11.9824433,160.987803 C9.10270087,161.904057 6.57186005,164.711469 5.95965189,167.668767 L5.50510159,169.594464 C4.52018828,172.535144 6.94423913,176.710583 9.98783486,177.315989 L12.0977112,177.939967 C14.602792,178.679943 17.035973,179.727835 19.2945402,181.039818 L20.6461262,181.824108 C21.7601658,182.441243 22.6182354,183.709238 22.7763824,184.972183 C22.9850712,186.227796 22.5243254,187.687546 21.6323439,188.596306 L20.0557652,190.268665 C17.6791584,193.342938 11.5301755,193.580473 8.9231959,190.698607 L8.05827864,189.913014 C7.06749595,188.946418 5.30440166,188.604289 4.02357415,189.130353 C2.7088347,189.564042 1.59300177,190.970681 1.47056014,192.348809 L0.660586731,198.838669 L0.463310599,200.99229 L0.0276727271,208.438971 C-0.24394879,211.338595 1.51213486,214.67256 4.05781215,216.090603 C6.39952875,217.660161 10.2289682,217.432564 12.3680285,215.596797 L17.3124857,211.744914 L17.3816139,211.690825 L28.7419474,202.791888 L30.750088,201.337351 L36.972112,197.178041 C40.0530434,195.080301 44.0784548,194.048212 47.7895286,194.404678 L52.9172407,194.852704 L54.458277,194.951107 L62.9548459,195.294051 L64.4238194,195.320606 L72.1340554,195.288185 C74.3803947,195.278085 76.6392879,195.500631 78.8404657,195.948494 L81.6712966,196.52376 C85.0566203,197.012841 88.2599934,200.605358 88.3573271,204.022086 L88.446509,205.061995 C88.6289486,206.852144 87.941906,208.849526 86.6964577,210.14929 C85.4932364,211.487992 83.5519414,212.323112 81.7518375,212.276191 L72.14074,212.179092 L71.5683131,212.168176 L59.3223565,211.83175 L58.6291184,211.805357 L54.1819274,211.58949 C51.0770293,211.432762 47.876754,211.93781 44.9712515,213.042886 L42.4772573,213.986185 L38.6672194,215.710677 L34.3628498,217.998543 C30.6922095,219.886117 27.6642654,223.571172 26.5260962,227.536446 L26.4378926,227.828559 C25.2371168,230.941281 27.2358012,235.489804 30.3416775,236.712997 L30.5891694,236.832742 C33.5238556,238.452315 38.1210417,237.61361 40.2935247,235.062306 C42.9407747,232.235017 46.692119,230.210754 50.5098197,229.549468 L53.3743996,229.032527 C55.9712708,228.562833 58.6442809,228.407246 61.2781618,228.572119 L67.7612098,228.975343 L69.4429481,229.037089 L79.1738786,229.145104 L81.5527679,229.085639 L86.8875384,228.759313 C90.9083847,228.521452 94.95923,227.407415 98.5357973,225.556008 L100.885666,224.345524 C102.964891,223.273682 105.171449,222.420152 107.430994,221.813932 L109.757548,221.188977 C113.405527,220.185235 117.531043,220.346362 121.08935,221.631626 L124.286854,222.764562 C125.365188,223.12005 126.321733,224.115645 126.633136,225.206874 C126.992472,226.283277 126.765523,227.644624 126.076197,228.546378 L124.544943,230.644443 L121.356407,234.389615 L120.287203,235.47058 C118.460361,237.307812 117.028886,239.624677 116.203587,242.079696 L115.653822,243.701551 C114.803415,246.431251 112.24763,248.86281 109.477449,249.577697 C106.926065,250.434811 103.461179,249.278416 101.937425,247.061094 L101.075116,245.924086 C99.6808141,243.732505 95.8049087,242.977052 93.6883478,244.484211 L93.1799949,244.786751 C90.7510529,246.252366 87.7345215,246.967416 84.905647,246.74829 L81.253756,246.488435 L79.6654386,246.413819 L71.3677762,246.224344 L69.5997908,246.136531 L63.703517,245.684432 C59.2830643,245.336438 54.6945193,245.950804 50.5217215,247.449655 L46.6316318,248.837721 C45.3273268,249.27141 44.1715495,250.474238 43.7906925,251.794041 C43.3527721,253.096086 43.6188503,254.742215 44.4448014,255.840286 C46.6200561,258.943233 50.2620017,261.283069 53.9900315,261.972377 L59.717887,263.101566 L64.6052808,263.690679 L71.691733,264.011303 C74.2092047,264.125998 76.7563493,263.948416 79.2333875,263.485076 L80.4036752,263.266602 C83.6032984,262.662337 87.005252,262.756667 90.1663982,263.537373 L90.8209962,263.697359 C92.1998097,264.012932 93.5153643,265.009016 94.1924616,266.249967 C94.9065686,267.470227 95.0810194,269.110165 94.6395122,270.453102 L94.0214347,272.433052 C92.863864,276.66649 88.5860696,280.42942 84.2368646,281.039876 L80.6268744,281.678516 C78.0436983,282.136318 75.3868291,282.283759 72.7689259,282.114649 L65.0782544,281.620355 C61.3058783,281.38233 57.5216004,280.46852 54.0567141,278.958754 L46.8455378,275.826645 L45.1688537,275.041703 L36.809726,270.838242 L34.4848023,269.77976 L30.0839142,267.979021 C26.7201116,266.692942 23.8508036,263.349039 23.0923503,259.830976 L22.1602613,255.949441 C21.5219671,253.285886 20.5398254,250.682936 19.2593239,248.261315 L16.7581561,243.526087 C14.3469852,238.926571 10.6919965,234.820698 6.40148521,231.891748 L4.73115961,230.743824 C3.89461099,230.120823 2.52786238,230.061521 1.64044587,230.609742 C0.713737159,231.089048 0.0627259241,232.291387 0.168048553,233.328527 L0.487277203,238.381608 L0.656673816,240.231548 L1.95087046,251.00633 L2.25102365,252.991003 L4.41176792,264.827688 L4.80224423,266.66769 L6.98842246,275.689793 L7.44721175,277.384146 L9.14166698,283.040353 C9.47671033,284.251326 10.5118394,285.364712 11.6958223,285.787485 C12.8608927,286.259949 14.3750278,286.118047 15.4320039,285.437699 L15.5446633,285.368459 C18.3816897,283.580265 22.1446097,282.905293 25.4268932,283.595579 L26.8621178,283.880198 C29.4133384,284.385245 31.9215169,285.200815 34.2814938,286.292859 L38.4149994,288.203404 C41.9085803,289.768889 44.9246226,292.92902 46.3238158,296.490256 C47.7810506,299.803857 47.2418835,304.311976 45.0444557,307.189118 L44.8887542,307.405311 C44.0122613,308.669233 42.4234547,309.568543 40.8879617,309.670041 C39.3568706,309.825791 37.6404053,309.203606 36.5651688,308.103254 L35.4268366,306.97879 C32.6079074,304.186855 29.219323,301.880254 25.5871597,300.281045 L21.2187161,298.350786 C20.4517848,297.992365 19.4288836,298.034398 18.6939077,298.45424 C17.9419759,298.842963 17.3512888,299.678572 17.2360208,300.516625 C16.8501096,302.857602 17.198522,305.410536 18.1972936,307.562853 L22.1767282,316.264658 L23.0991979,318.124537 L28.4310337,328.072832 L29.4648585,329.864284 L32.6648077,335.027499 C33.2964174,336.134368 34.7787601,336.87972 36.0445881,336.727065 C37.3182419,336.66646 38.6553176,335.684387 39.093238,334.48775 L39.5221913,333.435296 C40.7327494,330.161285 44.2944803,327.44641 47.774366,327.145337 L51.3359339,326.718653 L56.1039839,325.787085 L60.1421122,324.683963 C61.6582037,324.299964 63.0779397,323.090457 63.6971585,321.655307 C64.3693647,320.24427 64.3442568,318.380156 63.6343888,316.987691 L63.198914,316.092453 C61.4167442,312.468819 60.6214442,308.21469 60.9742588,304.192557 L61.0125727,303.732964 C61.1105586,300.530636 64.0000833,297.155942 67.1511212,296.563896 L67.4204602,296.498565 C70.2519433,295.613266 74.1402395,297.407651 75.3020492,300.135559 C76.9446583,303.381222 78.0283728,306.968363 78.4573261,310.580104 L78.5663986,311.488049 C78.7072635,312.9043 79.6325049,314.345967 80.8616493,315.064926 C82.0607947,315.832761 83.7663366,316.001545 85.0929778,315.483953 L86.3240787,315.032017 C89.0005125,314.147858 91.2923395,311.35576 91.6363499,308.559914 L92.1228557,305.452732 L92.4755071,302.053925 L92.6122961,299.393139 C92.590449,297.028865 94.7810293,294.468926 97.1217676,294.123376 L97.7078897,294.000209 C100.741051,293.40018 103.68715,291.451837 105.425136,288.89646 L106.668954,287.113642 C108.218306,284.894854 109.500437,282.465087 110.457308,279.93431 L112.585934,274.312317 C114.065016,270.38712 116.354397,266.688218 119.208379,263.612804 L126.669656,255.546707 L127.689786,254.3908 L132.369632,248.831041 C134.084141,246.795863 135.559636,244.534553 136.73188,242.146004 L137.418271,240.749141 C137.95646,239.593234 139.17468,238.650587 140.429422,238.41908 C141.673403,238.135764 143.165202,238.519926 144.117181,239.368895 L148.042324,242.725017 C150.497189,244.551497 151.300804,248.935309 149.652978,251.512681 L147.903742,254.706536 L145.645501,258.268098 L140.680012,265.089498 L139.629231,266.456385 L135.85229,271.112108 C134.317612,273.002778 132.986568,275.077383 131.907908,277.260165 L128.990015,283.160749 L128.75687,283.642011 L126.175162,289.083002 C125.00357,291.555128 123.508836,293.897408 121.760089,296.001827 L119.967811,298.160497 C118.623888,299.779582 117.116926,301.276152 115.488012,302.608826 L113.883554,303.922112 C111.23875,306.075895 109.038713,308.900251 107.598108,311.990816 L105.622412,316.202749 L105.08781,317.289579 L102.851743,321.633313 C101.313152,324.700092 98.4321051,327.299946 95.2225365,328.517763 L89.6886965,330.683765 L88.0408701,331.278743 L81.7329251,333.368499 C77.3097007,334.777745 73.2414104,338.157653 71.0472433,342.246094 L70.7788825,342.732569 C69.4356114,345.876897 64.2064896,347.401 61.3821801,345.47123 C58.1308738,343.475315 52.9010999,344.107276 50.2196118,346.820033 L49.647348,347.342512 C46.7472258,349.542076 46.3265875,355.184434 48.8683519,357.789176 L52.7147473,362.523915 L54.1612216,364.187313 L62.8257197,373.502996 L64.4640898,375.144726 L70.614051,380.887442 C71.51663,381.781702 73.0770679,382.159999 74.2892564,381.77828 C75.5221507,381.469061 76.6531462,380.330423 76.9534624,379.096152 L77.1856287,378.251583 C78.1380974,374.830619 78.2271162,371.068504 77.4378487,367.606485 C76.6510267,364.311946 77.3264936,360.456804 79.1869217,357.625442 L80.2355829,355.981431 C82.1514439,352.942675 85.0890649,350.391044 88.3671094,348.918261 L88.7045983,348.764465 C91.8468321,347.329479 95.2597092,346.386018 98.6932921,346.002996 L99.5745132,345.904104 C102.802668,345.555296 106.035062,344.263026 108.613021,342.290408 C111.218859,340.328543 113.376669,337.617415 114.703147,334.638775 L116.573357,330.477836 L118.573835,326.703502 L122.564682,320.227489 C123.770838,318.268882 125.191879,316.427577 126.780848,314.764016 L133.01673,308.232122 L135.557517,305.230837 L142.063553,296.54239 L144.688141,292.435865 L150.922393,280.876143 L151.354607,280.099999 L158.344214,267.937151 L159.218262,266.502165 L162.72782,261.058078 C164.559554,258.146887 167.715809,255.844359 171.048634,254.987733 C174.148478,254.05698 178.103131,255.057462 180.386154,257.350052 L181.530355,258.433786 C182.632656,259.449584 183.332905,261.036736 183.339915,262.534935 C183.388175,264.032482 182.746783,265.644399 181.682633,266.699948 L178.671645,269.770148 L176.550845,272.153483 L172.320821,277.397669 C170.801468,279.280192 169.483631,281.343719 168.414916,283.513794 L164.578955,291.297065 L164.378092,291.697844 L160.570663,299.165216 C159.730038,300.814278 158.746103,302.397846 157.639889,303.882034 L151.870459,311.624575 L150.473223,313.372528 L143.584373,321.413862 L142.864559,322.283847 L138.04662,328.314766 L136.767423,330.02704 L133.203572,335.135514 L131.90318,337.152283 L129.876453,340.562168 C128.157542,343.434096 127.126163,346.820847 126.952527,350.162795 L126.63607,355.910236 L126.583083,356.70088 L126.129022,362.429259 C126.077502,363.572295 125.22416,364.774634 124.161804,365.201318 C123.130751,365.699034 121.666668,365.519987 120.786099,364.788645 L119.870314,364.078809 C116.307768,361.25315 111.344072,359.783299 106.816015,360.213404 L105.951749,360.285577 C101.944598,360.476517 97.7378887,363.548183 96.3382064,367.305085 L93.8010071,373.435222 L93.5393309,374.04975 L91.0394673,379.758905 C89.600982,383.033405 88.7367169,386.617939 88.5249303,390.187647 C88.2378202,393.363907 90.0043383,396.986075 92.6846851,398.717248 L94.7464652,400.137246 C96.1699511,401.166891 98.2997181,401.448577 99.9423272,400.824437 C101.611838,400.276867 103.089941,398.718877 103.548078,397.02371 L104.999607,392.106339 C105.537307,390.285887 105.918001,388.411835 106.133211,386.526053 L106.965521,379.242779 C107.080299,377.968756 107.957118,376.66443 109.094146,376.076783 C110.201664,375.43521 111.773515,375.39839 112.910054,375.987178 C116.264563,377.594206 119.19501,380.466623 120.867455,383.787066 L121.573574,385.163891 C122.975701,387.801542 123.213248,391.271219 122.183662,394.075047 L121.026255,397.375614 L120.019983,399.905413 L117.871793,404.716235 L117.034918,406.773896 L116.150273,409.179389 C115.905553,409.774367 116.077069,410.598735 116.538793,411.047087 C116.965464,411.528837 117.781633,411.73835 118.387809,411.521831 L125.24454,409.358925 C128.915833,408.221102 132.36898,405.919388 134.83053,402.969585 C137.251646,400.177487 138.524974,396.089698 138.117378,392.417839 L137.626633,387.353842 C137.344251,384.45601 137.452346,381.494965 137.945373,378.625318 L138.853169,373.324437 L139.700805,369.652742 L141.805301,362.447669 L142.267677,360.685053 L143.259438,356.426525 C144.042673,353.045639 145.441703,349.756151 147.33376,346.846262 L150.308065,342.260268 L150.685009,341.665453 L154.291249,335.835901 L156.751658,332.378443 L161.384712,326.683626 L161.58101,326.440062 L169.171902,316.926108 L170.524303,315.106145 L175.197791,308.341766 C176.907246,305.870455 178.286223,303.137333 179.25793,300.294242 L180.225887,297.467442 C181.238191,294.505094 182.693795,291.661188 184.504986,289.107114 L188.213288,283.870586 L189.179289,282.575057 L193.426432,277.161763 C195.651087,273.829264 201.535296,272.673519 204.856709,274.916582 L205.775592,275.439551 C207.294292,276.272064 208.50273,277.906137 208.853099,279.601305 C209.257597,281.284416 208.859458,283.27691 207.839491,284.675892 L204.185155,289.858983 L203.357084,290.982306 L200.246154,295.020079 C198.451593,297.34623 196.972674,299.950972 195.894992,302.683605 L195.073932,304.761794 L193.729683,308.972261 L192.811452,312.694298 C192.16093,315.336349 191.171615,317.916164 189.888668,320.316117 L189.448465,321.140485 C187.904494,324.0463 185.68098,326.670592 183.067479,328.671395 L181.924907,329.549852 C179.141684,331.685877 176.676058,334.306585 174.714383,337.214355 L170.384417,343.619335 L169.575911,344.8756 L163.490187,354.822429 C162.351691,356.68247 161.394658,358.66584 160.647291,360.714378 L156.910131,370.952017 C156.063148,373.269859 155.475721,375.698812 155.169862,378.147315 L154.266794,385.358416 C153.803276,389.004044 154.107505,392.819922 155.143124,396.346131 L155.318879,396.94893 C156.243957,400.112482 156.690845,403.453453 156.629542,406.748807 L156.620738,407.240006 C156.838231,409.968892 153.754691,413.006019 151.027226,412.74926 L149.597545,412.753984 C145.091986,412.758383 140.484366,413.809371 136.423086,415.759017 L135.343611,416.274003 C134.229571,416.749888 133.388294,418.123291 133.471118,419.331169 C133.453347,420.541817 134.367175,421.867974 135.505181,422.283416 L141.425911,424.72752 L143.28373,425.429699 L152.665922,428.656464 L154.126744,429.121108 L161.167219,431.182028 L162.429624,431.524482 L169.564661,433.309092 L170.883639,433.610166 L178.746479,435.237233 L180.019807,435.474768 L186.475465,436.548076 L187.910689,436.754331 L192.857918,437.354848 C193.952882,437.522818 195.250829,436.969872 195.887819,436.064208 C196.580405,435.200251 196.749475,433.800454 196.282534,432.79655 L194.675793,429.037856 C193.083237,425.116244 189.334012,421.752465 185.261483,420.591018 L183.856094,420.162543 C180.523758,419.175908 177.401904,416.905964 175.437294,414.041367 C173.440729,411.244381 172.497554,407.468255 172.944604,404.061954 L172.962865,403.910928 C173.41122,400.244609 173.089382,396.411462 172.03583,392.870916 L171.993277,392.726896 C170.919834,389.151322 170.85038,385.146784 171.799588,381.536346 L172.621137,378.355036 C173.230084,375.993857 174.109186,373.686931 175.22616,371.518974 L179.180161,363.838504 L179.496618,363.207195 L183.220571,355.575927 C184.931004,352.059167 187.31935,348.804869 190.161757,346.117528 L192.465648,343.933767 C193.588818,342.816798 195.459191,342.277375 197.005282,342.624554 C198.566372,342.897117 200.08605,344.112652 200.694182,345.575172 L200.994336,346.250795 C202.692541,349.97772 203.001172,354.566647 201.817352,358.486956 L200.946076,361.474393 C200.312184,363.65017 199.447104,365.771207 198.378552,367.770218 L194.889699,374.300156 L193.367738,377.567651 L191.454486,382.342304 C189.782041,386.444919 189.388793,391.256556 190.372728,395.576015 L191.21857,399.393523 C191.562254,401.083151 192.794007,402.7125 194.326728,403.504773 C195.830918,404.349668 197.869873,404.48375 199.471886,403.842829 C203.492732,402.42674 206.977835,398.499263 207.903402,394.340604 L208.25426,392.928752 C208.576098,391.457923 209.861653,390.073767 211.305519,389.643499 C212.722809,389.132587 214.579651,389.483187 215.712929,390.475361 C219.359276,393.45726 222.193368,397.711715 223.539085,402.22407 L223.787555,403.040455 C225.018982,406.957831 224.782087,411.551808 223.154315,415.321907 C221.838923,418.81765 217.821175,421.634186 214.084178,421.680618 L213.400722,421.715319 C211.608118,421.77902 209.730734,422.713521 208.60039,424.105172 C207.42782,425.461468 206.836481,427.472372 207.088538,429.246881 L207.631455,433.544184 C207.767755,436.280889 210.80222,439.02623 213.540935,438.890682 L217.685038,439 L219.899422,438.984197 L232.437869,438.47247 C235.458802,438.480616 238.740107,436.108847 239.677577,433.2392 L241.039597,429.613611 L241.956197,426.794142 L244.174657,418.754926 C245.05653,415.662895 244.805778,412.086507 243.501147,409.147619 L241.498549,404.52953 L241.440182,404.395774 L237.501344,395.42222 L236.918971,394.007273 L233.132411,384.160476 L232.789542,383.226952 L231.021882,378.180387 C230.133488,375.108232 226.432033,372.587068 223.245616,372.884068 L221.277909,372.958033 C219.879857,373.045846 218.319745,372.296095 217.515315,371.150289 C216.654311,370.04619 216.393776,368.336034 216.886966,367.025843 C218.29855,362.993772 218.882879,358.584218 218.569846,354.323898 L218.303604,350.605119 C218.101763,347.767078 217.522652,344.932458 216.595128,342.242673 L214.042929,334.830042 C213.487295,333.215682 212.803513,331.639934 212.003811,330.131308 L210.074092,326.490241 C208.091874,322.871331 207.658519,318.117042 208.953857,314.199829 L210.109145,310.53742 C210.774504,308.42681 211.658659,306.373384 212.735037,304.439378 L214.858609,300.621871 C215.948193,298.110481 220.111534,296.887615 222.387709,298.410414 C225.192943,299.76329 227.184943,303.403542 226.810608,306.493618 L226.540943,309.927616 C226.316276,312.770707 226.466923,315.667236 226.985548,318.471879 L228.190562,325.00589 L228.991732,328.356147 L231.797455,337.859023 L232.586722,341.144765 L233.666198,346.934238 C234.146671,349.516009 234.945069,352.057701 236.027153,354.450649 L236.952231,356.498046 C238.12953,359.107513 239.664207,361.582082 241.478985,363.79696 L244.284056,367.224115 L245.74716,369.15193 L247.519384,371.674724 C249.127103,373.949555 250.212774,376.679256 250.606022,379.436326 L251.366758,384.662428 L251.39529,384.854346 L252.316455,390.930882 C252.680519,394.407401 255.89824,397.878706 259.339485,398.507083 L260.895521,398.865993 C262.269933,399.204863 263.895586,398.904278 265.057722,398.096528 C266.243661,397.324294 267.133686,395.931992 267.336016,394.532033 L267.646767,392.59151 C268.036917,390.159462 268.152348,387.667623 267.988332,385.209997 L267.747198,381.575773 C267.596225,379.29198 267.202977,377.011935 266.580172,374.809602 L265.400265,370.632045 C264.546597,367.602737 263.238868,364.668411 261.556804,362.007789 L259.02205,357.992987 C258.097624,356.528186 257.053691,355.1323 255.909815,353.831232 L254.372203,352.082139 C252.280913,349.731387 250.879111,346.601885 250.517818,343.477433 L250.418039,342.657464 C250.050388,339.621151 249.245795,336.608461 248.050563,333.792902 L246.766474,330.762291 C245.716998,328.288536 244.96849,325.666036 244.554047,323.011278 L243.366314,315.423347 L243.293436,314.977602 L241.453714,304.195001 L240.343587,299.659348 L237.883668,292.006249 C236.871527,288.848725 235.357229,285.813226 233.443651,283.104542 L229.33134,277.275154 L227.803999,274.899964 L224.106131,268.567646 C222.198259,265.244596 219.019016,262.454127 215.475056,260.992585 L209.960128,258.670181 L209.831165,258.616092 L203.444636,255.958565 C200.733964,254.832309 198.153396,253.326127 195.839885,251.520175 L192.024304,248.544793 L189.12141,245.993815 L186.543125,243.444954 C184.249831,241.399837 183.527409,237.221954 185.000948,234.526467 L185.549734,233.387177 C186.278351,231.818597 187.781726,230.491626 189.429226,229.962466 C191.061401,229.387364 193.061879,229.534968 194.591828,230.343044 L199.224068,232.707807 L203.044866,234.996161 L208.412733,238.725855 L211.357365,240.550054 L214.542152,242.298496 C216.977778,243.843127 221.06547,243.172391 222.878617,240.930632 L228.856573,234.425946 L229.894963,233.346448 L234.997567,228.277563 C237.648078,225.419157 242.710412,224.346175 246.29399,225.883149 C247.857036,226.448802 249.238784,227.844199 249.78806,229.411965 C250.390486,230.96018 250.248316,232.918135 249.428398,234.363222 L248.261534,236.504135 C245.987478,240.717534 242.444986,244.41937 238.334468,246.877811 L237.271297,247.51971 C235.958188,248.283635 234.936917,249.747621 234.673936,251.24305 C234.362534,252.729193 234.767031,254.467371 235.702544,255.663845 L239.161724,260.238924 L239.705945,260.98004 L243.061759,265.68578 C245.094844,268.542231 247.623729,271.0994 250.45782,273.164719 L251.263066,273.752529 C254.258728,275.766202 256.00666,280.178199 255.20223,283.695285 L255.14696,283.988539 C254.386713,287.995846 254.390789,292.216903 255.158699,296.222744 L256.762179,304.654431 L257.120373,306.305447 L260.513849,320.215433 L261.715603,324.08817 L265.961605,335.281163 C266.5624,336.865383 267.288246,338.407733 268.126262,339.88068 L273.92618,350.077752 L274.757023,351.634276 L280.050871,362.224633 C280.853181,363.829055 281.525714,365.504835 282.055424,367.218575 L284.080684,373.768879 L285.182659,378.590942 L285.578352,381.21947 C286.035348,384.19811 285.767476,387.36492 284.816475,390.22463 L284.754358,390.413127 C283.833681,393.203107 283.286851,396.143298 283.142726,399.077461 L283.133269,399.26889 C282.9836,402.326057 282.386555,405.391532 281.378164,408.281707 L281.012633,409.331554 C280.168421,412.325346 276.468434,414.756091 273.383263,414.343581 L271.24029,414.187342 C267.535738,413.818006 263.308322,415.716658 261.125568,418.730326 L260.918999,419.000282 C258.617553,421.948293 257.35955,425.949735 257.560576,429.683177 C257.597912,431.102686 258.37593,432.600559 259.51573,433.448387 C260.624226,434.336619 262.271074,434.710843 263.654942,434.388916 L271.716199,432.666216 L273.629777,432.197173 L282.542093,429.727817 L284.159268,429.234662 L293.349891,426.172934 L295.094562,425.536574 L300.41205,423.425638 C301.753854,422.931018 302.90262,421.592642 303.187285,420.192194 C303.541241,418.807386 303.090114,417.102769 302.097538,416.073939 L301.064366,414.948009 C298.430485,412.216842 297.230361,407.69683 298.162613,404.020247 L298.939164,400.605311 C299.363226,398.739731 299.952935,396.904453 300.695084,395.141023 L301.761027,392.607314 C303.087832,389.464452 303.858024,386.031269 304.000845,382.623176 L304.00753,382.468566 C304.153449,379.148449 303.783678,375.768541 302.923489,372.558231 L302.016508,369.162845 C301.278435,366.394045 300.164884,363.700349 298.732431,361.218122 L293.373042,351.921338 L292.885069,351.044185 L285.885679,337.998645 L285.541343,337.373363 L281.11714,329.540239 C280.151302,327.830735 279.336111,326.02739 278.691133,324.173051 L276.518976,317.932619 L275.617864,314.873823 L273.290169,305.280038 L272.631821,302.945578 L270.824054,297.335967 C269.809631,294.288738 269.954083,290.682862 271.20915,287.726542 C272.079448,285.141676 275.561616,283.240742 278.208703,283.90545 L278.731566,284.000106 C282.28808,284.622943 285.780519,286.417165 288.356848,288.945173 L288.528853,289.112001 C291.110073,291.501202 292.490517,295.579868 291.890699,299.044168 L291.642066,300.710824 C290.989425,305.013829 291.337674,309.571313 292.636273,313.72541 L293.479506,316.446638 C294.232253,318.879012 295.277001,321.238725 296.57185,323.431608 L299.667618,328.678074 L300.370964,329.931733 L304.249152,337.212726 L305.405419,339.21141 L311.245118,348.535076 L311.580977,349.060163 L316.914932,357.22841 C318.392873,359.489719 319.598377,361.952885 320.476826,364.507285 L322.019167,368.984938 C323.046307,371.961134 323.645961,375.11817 323.781446,378.263476 L323.919376,381.417416 C324.128391,385.336096 322.792946,389.538091 320.359765,392.618392 L319.924127,393.180624 C317.687407,396.062327 315.916161,399.366641 314.75484,402.823936 L313.856011,405.490424 C312.870608,407.762323 314.380667,411.229556 316.716026,412.057345 C319.322027,413.307419 322.843814,413.153949 325.33096,411.68198 L332.002317,407.934691 L333.484497,407.050206 L340.172484,402.818397 L341.649609,401.826711 L347.79957,397.453326 C348.779755,396.794483 349.430441,395.478916 349.358867,394.300689 C349.349574,393.120181 348.610522,391.852349 347.587458,391.261932 C344.548753,389.433334 342.044814,386.39637 340.830343,383.065989 L340.644968,382.570228 C339.313762,379.689665 340.932241,375.249482 343.805462,373.899376 C346.514341,372.122913 351.150656,372.877063 353.155699,375.420384 L357.473111,380.208723 C359.311855,382.573812 363.704755,383.183616 366.119023,381.408781 C368.813065,379.942351 370.304375,375.806664 369.165228,372.960314 L368.209987,370.057594 C367.206977,367.003197 365.734253,364.067405 363.885075,361.436922 L362.885488,360.012688 C360.625943,356.674161 356.521132,354.254006 352.504035,353.892164 L351.438255,353.777795 C347.638326,353.365122 343.702422,353.653977 340.003739,354.616989 C337.179919,355.605578 333.133639,353.501485 332.323665,350.623366 L331.043327,347.198981 C329.837497,343.965048 328.092663,340.887191 325.93681,338.191052 L322.902018,334.388695 C321.77999,332.98336 320.770458,331.480762 319.893476,329.911042 L316.591138,324.001823 L314.656854,320.947426 L311.911618,317.097661 C309.482024,313.742842 308.137938,309.377277 308.260053,305.238005 L308.391625,299.304837 C308.381843,298.156913 309.133285,296.908631 310.1526,296.379309 C311.137513,295.788566 312.5954,295.802414 313.568901,296.411567 L314.104644,296.72437 C317.061666,298.444953 319.730274,300.776969 321.830858,303.476204 L324.963961,307.489377 L325.125532,307.698075 L332.567081,317.389122 L333.99823,319.405402 L337.46116,324.694227 C339.284741,327.490724 341.745802,329.951772 344.54321,331.775645 L344.739345,331.904188 C347.24573,333.591535 350.65665,334.257383 353.614162,333.636663 C356.648628,333.018225 360.030853,333.433667 362.825001,334.768296 L366.344179,336.418824 L368.960941,337.511518 L372.032905,338.641684 C374.700535,339.559893 377.052686,342.029413 377.838693,344.737282 L378.273678,346.126488 C378.931211,348.223739 379.37924,350.39805 379.604396,352.584417 L380.763434,363.815207 C380.803541,364.463297 381.343034,365.135336 381.96747,365.314872 C382.575113,365.544913 383.410032,365.330024 383.830833,364.83524 L385.656371,362.858386 L387.263601,360.981402 L395.59599,350.477065 L396.911871,348.698483 L403.436168,339.231124 L404.66629,337.306567 L412.028277,324.856657 L413.084275,322.926235 L415.432676,318.270512 C415.937605,317.364684 415.788425,315.994539 415.100241,315.218558 C414.478577,314.388163 413.165794,313.965389 412.175989,314.276726 L404.752048,316.277855 C400.281543,317.437346 396.041899,320.424784 393.447963,324.243431 L393.149114,324.674514 C392.182135,326.111781 390.486538,327.188836 388.77366,327.453579 C387.068933,327.766219 385.113291,327.3063 383.727141,326.266717 L381.279775,324.484062 C379.240821,322.997756 377.014861,321.739699 374.689448,320.759255 L367.084535,317.549923 L365.405894,316.894827 L359.910042,314.921721 C357.593107,314.090836 355.356387,312.991299 353.283684,311.664164 L350.626977,309.964598 C348.748126,308.763074 346.983238,307.362463 345.386769,305.805776 L340.239818,300.789677 L338.591829,299.06274 L332.513605,292.21283 L330.916483,290.53542 L323.698948,283.470783 L321.952647,281.880047 L317.406818,278.028 C314.590661,275.603772 310.760569,274.094821 307.04656,273.946402 L304.3848,273.819163 C302.252913,273.717827 300.12119,273.406653 298.049464,272.894437 L291.134855,271.186236 L289.8912,270.90455 L280.054294,268.874422 L279.503878,268.765755 L273.943625,267.71656 C271.265235,267.212327 268.630376,266.365965 266.159696,265.216412 L264.780883,264.57549 C261.928042,263.28827 259.463068,260.71986 258.295389,257.817628 L258.182404,257.54588 C257.031029,254.900246 257.132601,251.499321 258.439841,248.927163 L260.457927,244.786425 L260.56488,244.564693 L262.760514,239.972834 C263.89689,237.284352 267.311398,235.293324 270.212824,235.627307 L270.262062,235.630566 C273.0042,235.607757 275.918995,238.496792 275.918506,241.237082 L276.066708,243.163431 C276.162574,246.684752 279.233071,250.414284 282.672524,251.187169 L285.774161,252.047216 C287.776758,252.602931 289.84131,252.969824 291.912872,253.137793 L300.946,253.872393 L302.021725,253.977638 L310.747852,254.976003 L313.953834,255.185191 L317.427198,255.242375 C320.422697,255.209791 323.677754,257.055821 325.185856,259.642479 L327.352144,263.135127 L329.436097,266.114093 L333.479606,271.263622 L336.085444,274.203162 L341.559449,279.681624 L343.441398,281.423875 L350.047051,287.077963 C351.614988,288.420412 353.317433,289.620144 355.109385,290.645065 L362.928856,295.119297 L365.327473,296.364157 L370.64594,298.853227 C372.724839,299.825525 374.712111,301.022976 376.542703,302.406807 L378.040208,303.538113 C380.498986,305.503074 384.387119,306.083715 387.31349,304.922921 L391.348032,303.448345 C394.194678,302.405992 397.215285,301.755621 400.23899,301.534215 L404.20049,301.241613 C406.731331,301.053931 409.300812,301.161783 411.806871,301.561096 L415.21714,302.103289 C416.529922,302.359071 418.133239,301.71033 418.898051,300.613725 C419.737372,299.573001 419.911659,297.853233 419.298147,296.665557 L418.155087,294.249312 C416.680244,291.024502 413.666973,288.270038 410.321594,287.088553 L410.129046,287.017683 C406.717799,285.759137 403.045691,285.067222 399.410104,284.997656 L393.829309,284.885568 L393.33889,284.879214 L388.008522,284.851355 C384.85406,284.84044 381.641557,284.169215 378.746978,282.916046 L374.957157,281.283276 L373.682036,280.701494 L367.912932,277.919823 L364.768252,276.186206 L359.262292,272.747321 L357.93614,271.873915 L352.263717,267.938943 L348.728072,265.107256 L346.000771,262.596518 C343.152332,259.993243 340.926209,256.541813 339.729998,252.874354 L339.637556,252.59446 C339.190179,251.341616 339.449899,249.728234 340.267861,248.678712 C341.034466,247.591394 342.50344,246.873412 343.833179,246.936298 L345.587469,246.977028 C348.410963,247.034375 351.294129,247.805795 353.768396,249.165839 L357.177523,251.026532 L358.001518,251.491664 L363.946214,254.96134 L364.777382,255.430383 L370.05297,258.308176 L371.496999,259.05027 L377.387566,261.896457 L378.340524,262.338292 L382.33561,264.113779 C385.27959,265.425599 388.476278,266.269028 391.684706,266.580854 L397.246914,267.126306 L400.482895,267.606752 L406.482372,268.804367 C411.180479,269.673863 415.764458,272.783001 418.307527,276.82501 L422.543747,283.353482 C423.278397,284.591337 425.011818,285.37856 426.42813,285.117401 C427.860746,284.970449 429.303144,283.728358 429.660035,282.334101 L431.80953,275.149067 L432.35261,273.094175 L434.45841,263.940433 L434.763291,262.459993 L436.068085,255.29679 L436.342968,253.510877 L437.176419,246.891007 C437.432388,245.128228 436.769801,243.105432 435.52044,241.834993 C434.319991,240.518122 432.335491,239.745237 430.559842,239.903105 L429.621721,239.968761 C424.986221,240.204341 420.148717,242.920682 417.53652,246.754644 L417.438697,246.892473 C415.155348,250.434486 409.855142,252.45435 405.791253,251.331352 L399.885686,249.978639 L397.110451,249.2139 L390.278665,247.006679 L386.434715,245.492677 L381.493681,243.179071 L379.323481,242.256137 L372.848259,239.771629 L371.455098,239.272773 L364.234139,236.867932 L361.454176,235.80049 L354.840535,232.911618 C352.963314,232.09116 351.000661,231.444048 349.003444,230.987061 L347.068833,230.543923 C344.002575,229.826918 340.620023,229.992769 337.638708,231.006448 L336.81129,231.28341 C334.281427,232.129609 331.837812,233.294314 329.587886,234.726694 L328.119564,235.660543 C325.096837,237.627458 321.105664,238.46095 317.54752,237.868252 L312.53638,237.086732 L311.10034,236.895139 L302.724909,235.963734 L298.288315,235.16022 L295.025596,234.335526 C291.470224,233.445013 288.038434,231.73779 285.184615,229.439498 L282.900777,227.608782 C281.771412,226.733584 281.004807,225.235548 280.955895,223.808218 C280.859866,222.383333 281.470607,220.815404 282.505573,219.830562 L282.992404,219.351581 C285.324013,217.027385 288.544831,215.399829 291.800213,214.900646 C295.110213,214.360246 298.649771,214.659038 301.822004,215.746845 L306.160611,217.21914 L310.587912,218.3858 L315.496989,219.320627 C318.99106,220.026227 322.975385,219.299121 325.994362,217.405193 L330.13765,214.869366 L331.582494,213.932259 L335.575624,211.191643 C338.17869,209.249002 342.463822,209.099443 345.196177,210.855705 L349.736789,213.526266 L351.13207,214.301921 L359.539457,218.713103 C361.477654,219.73053 363.528021,220.557667 365.629909,221.169915 L370.853487,222.692715 C374.245496,223.685052 377.845214,224.127213 381.376783,223.985148 L382.617177,223.936435 C386.725738,223.727736 391.154832,225.26357 394.2506,227.970787 L396.000488,229.465728 C398.354921,231.868939 403.553066,231.650791 405.697669,229.05892 C408.338561,226.727719 408.839088,221.621525 406.701169,218.822585 L404.732484,215.847203 C402.763961,213.371656 403.545403,208.564581 406.196566,206.838948 L406.44846,206.641816 C409.009626,204.46946 413.413938,204.02958 416.354657,205.652249 C419.588518,207.205026 422.248974,210.513087 423.070849,214.002965 L423.157748,214.345746 C423.990873,217.978504 427.003981,221.402889 430.503105,222.693204 L434.660414,224.336726 C435.56658,224.721377 436.775345,224.590553 437.577981,224.020664 C438.408172,223.491667 438.984022,222.421944 438.968208,221.438079 L439,217.831877 L438.958914,215.874411 L438.20845,201.079288 L438.014598,198.812602 L437.349728,193.290641 C437.182288,191.671557 436.188571,190.028034 434.832256,189.126606 C433.506756,188.180375 431.616166,187.836617 430.042196,188.255969 L424.806553,189.5572 C421.472749,190.388899 417.965147,190.693719 414.53776,190.449505 L405.348605,189.802718 L404.747157,189.754983 L398.328509,189.185094 C395.014107,188.711001 391.01951,191.102971 389.874982,194.246973 L389.23946,195.738981 C388.084661,198.454019 386.546233,201.034649 384.707,203.34239 L383.676599,204.636615 C381.605526,207.453802 377.270994,208.974973 373.891866,208.070449 L373.829096,208.056275 C369.892378,207.171627 366.068644,205.400214 362.849294,202.969632 L362.447568,202.667581 C361.389776,201.923695 360.746428,200.406109 360.947617,199.129316 C361.067613,197.842423 362.065243,196.529951 363.273845,196.069543 L364.932758,195.376487 C368.60242,193.906147 371.806934,190.607536 373.168955,186.898532 C373.72736,185.527409 373.57492,183.751271 372.791032,182.495169 C372.058502,181.208276 370.567845,180.229135 369.095284,180.067357 L366.424068,179.719037 C362.893477,179.243478 359.111645,179.767261 355.843708,181.184652 L355.555946,181.308145 C352.393169,182.660694 349.410876,184.539471 346.825744,186.807949 L346.603523,187.002637 C343.879808,189.393955 340.691108,191.334967 337.315078,192.656399 L331.379022,194.987601 L330.692143,195.266354 L323.971222,198.081913 C319.483435,199.994414 314.182413,200.497995 309.414363,199.464928 L301.794776,197.862787 Z" id="Path"></path>
            </g>
            <g id="dots" transform="translate(28.000000, 41.000000)" fill="#FFFFFF" stroke-width="5">
                <circle id="Oval" cx="344.5" cy="37.5" r="9.5"></circle>
                <circle id="Oval" cx="160" cy="197" r="12"></circle>
                <circle id="Oval" cx="334.5" cy="139.5" r="10.5"></circle>
                <circle id="Oval" cx="193.5" cy="62.5" r="7.5"></circle>
                <circle id="Oval" cx="232.5" cy="353.5" r="10.5"></circle>
                <circle id="Oval" cx="88.5" cy="361.5" r="7.5"></circle>
                <circle id="Oval" cx="66.5" cy="9.5" r="9.5"></circle>
                <circle id="Oval" cx="7.5" cy="188.5" r="7.5"></circle>
            </g>
        </g>
    </g>
</svg>